%YAML 1.1
%TAG !u! tag:unity3d.com,2011:
--- !u!1045 &1
EditorBuildSettings:
  m_ObjectHideFlags: 0
  serializedVersion: 2
  m_Scenes:
  - enabled: 1
    path: Assets/Scenes/Game/Lvl1.unity
    guid: 4ecbf47c3ae78334ca4617ce8e64a793
  - enabled: 1
    path: Assets/Scenes/Game/Lvl2/Lvl2.unity
    guid: 122e2abcddd69e644ac2fcde112426bc
  - enabled: 1
    path: Assets/Scenes/Game/Lvl2/Lvl2ff1.unity
    guid: b2e347bb3048e45448946eed8553f2e2
  - enabled: 1
    path: Assets/Scenes/Game/Lvl2/Lvl2ff2.unity
    guid: ca0c85a38d0b423418d60161bba60881
  - enabled: 1
    path: Assets/Scenes/Game/Lvl2/Lvl2ff3.unity
    guid: f99a80d726b12d74db25047b9c72d480
  - enabled: 1
    path: Assets/Scenes/Game/Lvl2/Gameover.unity
    guid: 6d73ca5a4eae2ed4792dc5d93e6ef251
  - enabled: 1
    path: Assets/Scenes/Game/Lvl2/Gameoverff1.unity
    guid: 1831d3ade9386934d93d79a5dda847c6
  - enabled: 1
    path: Assets/Scenes/Game/Lvl2/Gameoverff2.unity
    guid: 56f004cbc2fbdbd468433c89881b22a9
  - enabled: 1
    path: Assets/Scenes/Game/Lvl2/Gameoverff3.unity
    guid: bff4907c75e97d344b5662e22893c344
  - enabled: 1
    path: Assets/Scenes/Lobby.unity
    guid: c55cec0acba33914eaa94c30f93b8dfa
  - enabled: 1
    path: Assets/Scenes/Game/Lvl1fin.unity
    guid: bc548abf0544b0d4cb6ef96073da2689
  - enabled: 1
    path: Assets/Scenes/Game/Lvl2/Lvl2fin.unity
    guid: dade5a318b137de48989ecd4ea62524a
  m_configObjects:
    com.unity.input.settings: {fileID: 11400000, guid: 21c65ed031843cb4a913df67a4d71b34, type: 2}
